…
``` r
client_info_adj <- 
  client_info %>%
  select(anon_ID) %>%
  mutate(date = as.Date("2019-01-01")) %>%
  group_by(anon_ID) %>%
  padr::pad(group = "anon_ID", interval = "day", start_val = as.Date(global_min), end_val = as.Date(global_max))

# each client now has 1 entry per day
client_info_adj %>% 
  group_by(anon_ID) %>% 
  tally(name = "days")
```

    ## # A tibble: 641 × 2
    ##    anon_ID  days
    ##      <dbl> <int>
    ##  1       1   989
    ##  2       2   989
    ##  3       3   989
    ##  4       4   989
    ##  5       5   989
    ##  6       6   989
    ##  7       7   989
    ##  8       8   989
    ##  9       9   989
    ## 10      10   989
    ## # … with 631 more rows
…
# rolled up into months - each client has 1 entry per 33 months
client_info %>% 
  group_by(anon_ID) %>% 
  tally(name = 'months')
```

    ## # A tibble: 641 × 2
    ##    anon_ID months
    ##      <dbl>  <int>
    ##  1       1     33
    ##  2       2     33
    ##  3       3     33
    ##  4       4     33
    ##  5       5     33
    ##  6       6     33
    ##  7       7     33
    ##  8       8     33
    ##  9       9     33
    ## 10      10     33
    ## # … with 631 more rows
…
care_mgmt_util <-
  care_mgmt %>%
  # filter(anon_ID == client) %>%
  mutate(month = as.Date(floor_date(assistance_date, 'month'))) %>%
  group_by(anon_ID, month) %>%
  summarise(total_care_mgmt_encounters = n(),
            total_care_mgmt_mins = sum(amount, na.rm = T),
            mean_care_mgmt_mins = mean(amount, na.rm = T))

care_mgmt_util %>% 
  filter(anon_ID == client)
```

    ## # A tibble: 30 × 5
    ## # Groups:   anon_ID [1]
    ##    anon_ID month      total_care_mgmt_enco… total_care_mgmt_m… mean_care_mgmt_m…
    ##      <dbl> <date>                     <int>              <dbl>             <dbl>
    ##  1     210 2019-01-01                     7                 83             11.9 
    ##  2     210 2019-02-01                     2                  9              4.5 
    ##  3     210 2019-03-01                     6                 22              3.67
    ##  4     210 2019-04-01                     7                 61              8.71
    ##  5     210 2019-05-01                     9                 51              5.67
    ##  6     210 2019-06-01                    10                 22              2.2 
    ##  7     210 2019-07-01                     6                 62             10.3 
    ##  8     210 2019-08-01                     7                 46              6.57
    ##  9     210 2019-09-01                     1                  1              1   
    ## 10     210 2019-10-01                     3                 41             13.7 
    ## # … with 20 more rows
``` r
pantry_util <- 
  pantry %>%
  # filter(anon_ID == client) %>%
  mutate(month = as.Date(floor_date(mdy_hm(assistance_date), 'month'))) %>%
  group_by(anon_ID, month) %>%
  summarise(total_pantry_encounters = n(),
            total_pantry_pounds = sum(amount, na.rm = T),
            mean_pantry_pounds = mean(amount, na.rm = T))

pantry_util %>% 
  filter(anon_ID == client)
```

    ## # A tibble: 30 × 5
    ## # Groups:   anon_ID [1]
    ##    anon_ID month      total_pantry_encounters total_pantry_pou… mean_pantry_pou…
    ##      <dbl> <date>                       <int>             <dbl>            <dbl>
    ##  1     210 2019-01-01                       2                50             25  
    ##  2     210 2019-02-01                       2                50             25  
    ##  3     210 2019-03-01                       1                25             25  
    ##  4     210 2019-04-01                       2                50             25  
    ##  5     210 2019-05-01                       2                50             25  
    ##  6     210 2019-07-01                       1                25             25  
    ##  7     210 2019-08-01                       1                25             25  
    ##  8     210 2019-09-01                       1                25             25  
    ##  9     210 2019-10-01                       2                50             25  
    ## 10     210 2019-11-01                       2                55             27.5
    ## # … with 20 more rows
…
monthly_util %>% 
  filter(anon_ID == client)
```

    ## # A tibble: 33 × 16
    ## # Rowwise: 
    ##    anon_ID county     poverty minority age_group month      total_care_mgmt_enc…
    ##      <dbl> <chr>      <chr>   <chr>    <chr>     <date>                    <int>
    ##  1     210 Montgomery No      Yes      P         2019-01-01                    7
    ##  2     210 Montgomery No      Yes      P         2019-02-01                    2
    ##  3     210 Montgomery No      Yes      P         2019-03-01                    6
    ##  4     210 Montgomery No      Yes      P         2019-04-01                    7
    ##  5     210 Montgomery No      Yes      P         2019-05-01                    9
    ##  6     210 Montgomery No      Yes      P         2019-06-01                   10
    ##  7     210 Montgomery No      Yes      P         2019-07-01                    6
    ##  8     210 Montgomery No      Yes      P         2019-08-01                    7
    ##  9     210 Montgomery No      Yes      P         2019-09-01                    1
    ## 10     210 Montgomery No      Yes      P         2019-10-01                    3
    ## # … with 23 more rows, and 9 more variables: total_care_mgmt_mins <dbl>,
    ## #   mean_care_mgmt_mins <dbl>, total_pantry_encounters <int>,
    ## #   total_pantry_pounds <dbl>, mean_pantry_pounds <dbl>,
    ## #   total_volunteer_encounters <int>, total_volunteer_mins <dbl>,
    ## #   mean_volunteer_mins <dbl>, util <dbl>
…
